<?xml version="1.0" encoding="iso-8859-1"?>
<!-- Generator: Adobe Illustrator 19.0.0, SVG Export Plug-In . SVG Version: 6.00 Build 0)  -->
<svg version="1.1" id="Capa_1" xmlns="http://www.w3.org/2000/svg" xmlns:xlink="http://www.w3.org/1999/xlink" x="0px" y="0px"
	 viewBox="0 0 288.836 288.836" style="enable-background:new 0 0 288.836 288.836;" xml:space="preserve">
<g>
	<path id="Arrow_Down_Left" d="M285.335,3.507c-4.668-4.668-12.235-4.668-16.891,0L24.061,247.878v-91.382
		c0-6.641-5.39-12.03-12.03-12.03S0,149.855,0,156.496v120.303c0,3.188,1.239,6.268,3.501,8.529s5.341,3.501,8.529,3.501h120.303
		c6.641,0,12.03-5.39,12.03-12.03c0-6.641-5.39-12.03-12.03-12.03H40.951L285.335,20.397C290.003,15.73,290.003,8.175,285.335,3.507
		z"/>
	<g>
	</g>
	<g>
	</g>
	<g>
	</g>
	<g>
	</g>
	<g>
	</g>
	<g>
	</g>
</g>
<g>
</g>
<g>
</g>
<g>
</g>
<g>
</g>
<g>
</g>
<g>
</g>
<g>
</g>
<g>
</g>
<g>
</g>
<g>
</g>
<g>
</g>
<g>
</g>
<g>
</g>
<g>
</g>
<g>
</g>
</svg>
